{
  "project_info": {
    "project_number": "387786690208",
    "project_id": "motion-notifier-fb",
    "storage_bucket": "motion-notifier-fb.appspot.com"
  },
  "client": [
    {
      "client_info": {
        "mobilesdk_app_id": "1:387786690208:android:efdcf9aba2efd2d9e703c5",
        "android_client_info": {
          "package_name": "com.example.motion_notifier"
        }
      },
      "oauth_client": [
        {
          "client_id": "387786690208-q3ll040ag4iqsht68428cvcv3cf7rbc7.apps.googleusercontent.com",
          "client_type": 3
        }
      ],
      "api_key": [
        {
          "current_key": "AIzaSyBn5d5Q86cUZI1SM6g_7Q4cXoB0PXhAL1c"
        }
      ],
      "services": {
        "appinvite_service": {
          "other_platform_oauth_client": [
            {
              "client_id": "387786690208-q3ll040ag4iqsht68428cvcv3cf7rbc7.apps.googleusercontent.com",
              "client_type": 3
            }
          ]
        }
      }
    }
  ],
  "configuration_version": "1"
}